Forecasting pipelines in Supply Chain
…
---

```r
rainfall %>% 
  group_nest(country) %>% 
  filter(country %in% sample(country, size = 5)) %>%
  mutate(cv=map(data, ~cvts(data = .x, cv_size = 6, lead_time = 3, keep_prev=TRUE))) %>% 
* unnest(cv)
```

```
## # A tibble: 30 x 5
##    country       data                iter train             test           
##    <chr>         <list>             <int> <list>            <list>         
##  1 Colombia      <tibble [312 x 2]>     1 <tibble [304 x 2~ <tibble [3 x 2~
##  2 Colombia      <tibble [312 x 2]>     2 <tibble [305 x 2~ <tibble [3 x 2~
##  3 Colombia      <tibble [312 x 2]>     3 <tibble [306 x 2~ <tibble [3 x 2~
##  4 Colombia      <tibble [312 x 2]>     4 <tibble [307 x 2~ <tibble [3 x 2~
##  5 Colombia      <tibble [312 x 2]>     5 <tibble [308 x 2~ <tibble [3 x 2~
##  6 Colombia      <tibble [312 x 2]>     6 <tibble [309 x 2~ <tibble [3 x 2~
##  7 Liechtenstein <tibble [312 x 2]>     1 <tibble [304 x 2~ <tibble [3 x 2~
##  8 Liechtenstein <tibble [312 x 2]>     2 <tibble [305 x 2~ <tibble [3 x 2~
##  9 Liechtenstein <tibble [312 x 2]>     3 <tibble [306 x 2~ <tibble [3 x 2~
## 10 Liechtenstein <tibble [312 x 2]>     4 <tibble [307 x 2~ <tibble [3 x 2~
## # ... with 20 more rows
```
…
